[
  {
    "model": "flavors.Flavor",
    "fields": {
      "name": "French Vanilla",
      "description": "Traditional vanilla with egg yolk for a rich flavor",
      "category": "Premium Ice Cream"
    }
  },
  {
    "model": "flavors.Flavor",
    "fields": {
      "name": "Chocolate",
      "description": "Made with Bensdorp Cocoa imported all the way from Holland",
      "category": "Premium Ice Cream"
    }
  },
  {
    "model": "flavors.Flavor",
    "fields": {
      "name": "Coffee",
      "description": "A deep robust coffee flavor",
      "category": "Premium Ice Cream"
    }
  },
  {
    "model": "flavors.Flavor",
    "fields": {
      "name": "Chocolate Chip",
      "description": "Vanilla ice cream with dark chocolate chips",
      "category": "Premium Ice Cream"
    }
  },
  {
    "model": "flavors.Flavor",
    "fields": {
      "name": "Mint Chocolate Chip",
      "description": "Cool mint ice cream with chocolate chips and mint patties",
      "category": "Premium Ice Cream"
    }
  },
  {
    "model": "flavors.Flavor",
    "fields": {
      "name": "Cookie Dough",
      "description": "Vanilla ice cream with tons of raw cookie dough and chocolate chips",
      "category": "Premium Ice Cream"
    }
  },
  {
    "model": "flavors.Flavor",
    "fields": {
      "name": "Oreo",
      "description": "Vanilla ice cream with real oreo cookies",
      "category": "Premium Ice Cream"
    }
  },
  {
    "model": "flavors.Flavor",
    "fields": {
      "name": "Coffee Kahlua Brownie",
      "description": "Coffee and Kahlua ice cream with fudge brownies",
      "category": "Premium Ice Cream"
    }
  },
  {
    "model": "flavors.Flavor",
    "fields": {
      "name": "Maple Walnut",
      "description": "Pure maple ice cream with walnuts",
      "category": "Premium Ice Cream"
    }
  },
  {
    "model": "flavors.Flavor",
    "fields": {
      "name": "Butter Pecan",
      "description": "Rich buttery flavored ice cream with roasted pecans",
      "category": "Premium Ice Cream"
    }
  },
  {
    "model": "flavors.Flavor",
    "fields": {
      "name": "Peppermint Stick",
      "description": "Mint ice cream with peppermint candies",
      "category": "Premium Ice Cream"
    }
  },
  {
    "model": "flavors.Flavor",
    "fields": {
      "name": "Butter Crunch",
      "description": "Butterscotch ice cream with crunchy butterscotch candy",
      "category": "Premium Ice Cream"
    }
  },
  {
    "model": "flavors.Flavor",
    "fields": {
      "name": "Moose Tracks",
      "description": "Vanilla ice cream with a special hardening fudge ripple and peanut butter truffles",
      "category": "Premium Ice Cream"
    }
  },
  {
    "model": "flavors.Flavor",
    "fields": {
      "name": "Strawberry",
      "description": "Farm-fresh strawberry ice cream with diced strawberries",
      "category": "Premium Ice Cream"
    }
  },
  {
    "model": "flavors.Flavor",
    "fields": {
      "name": "Maine Black Bear",
      "description": "Red raspberry ice cream with chocolate chips and chocolate covered raspberry truffles",
      "category": "Premium Ice Cream"
    }
  },
  {
    "model": "flavors.Flavor",
    "fields": {
      "name": "Coffee Toffee with Heath® Bar",
      "description": "Coffee 95% Fat Free Yogurt with Heath® Bar pices, chocolate chips and toffee",
      "category": "95% Fat Free Yogurt"
    }
  },
  {
    "model": "flavors.Flavor",
    "fields": {
      "name": "Black Raspberry",
      "description": "Black Raspberry no sugar added ice cream",
      "category": "Low Fat (95% Fat Free) No Sugar Added Ice Cream"
    }
  },
  {
    "model": "flavors.Flavor",
    "fields": {
      "name": "Raspberry",
      "description": "Rasberry sorbet made with real fruit",
      "category": "Sherbet"
    }
  },
  {
    "model": "flavors.Flavor",
    "fields": {
      "name": "Orange",
      "description": "",
      "category": "Sorbet"
    }
  }
]
